…
You might have thought that typing out each variable in the above example (`phq9_01 + phq9_02...`) seemed a bit repetitive.

In general, if you find yourself typing something repetitive in R then there *will* a better way of doing it, and this is true here.

Stepping back, what we want is *the row mean of all the variables starting with `phq9_0`*. We can write this more concisely like so:


```r
phq9.df %>% 
  mutate(phq9 = rowMeans(
    select(phq9.df, starts_with("phq9_0"))
  )
)
# A tibble: 2,429 x 13
   patient phq9_01 phq9_02 phq9_03 phq9_04 phq9_05 phq9_06 phq9_07 phq9_08
     <int>   <int>   <int>   <int>   <int>   <int>   <int>   <int>   <int>
 1       1       3       3       3       3       3       3       3       0
 2       2       1       2       3       3       3       2       3       2
 3       2       1       2       3       2       3       2       1       2
 4       2       2       2       3       3       3       2       1       1
 5       2       2       3       3       3       3       3       2       1
 6       2       2       3       3       3       3       3       1       1
 7       2       3       3       3       3       3       2       2       1
 8       2       2       2       3       3       3       1       2       2
 9       2       3       3       3       3       3       2       1       1
10       2       3       3       3       3       3       3       3       3
# ... with 2,419 more rows, and 4 more variables: phq9_09 <int>,
#   month <int>, group <int>, phq9 <dbl>
```
…
